> | i0=@parameter0: * r0=@this: * true()=numeric_const("1")
  * zero()=numeric_const("0") * zero()=false()
  * TreeOrNull(@parameter1:, v_27) * TreeOrNull(@parameter2:, v_28)
  * field(@this:, "<Tree: Tree left>", nil())
  * field(@this:, "<Tree: Tree right>", nil())
  * field(@this:, "<Tree: int value>", zero()) |-  -| 

